[gd_scene load_steps=3 format=2]

[ext_resource path="res://fonts/BooterZeroZero-normal.tres" type="DynamicFont" id=1]

[sub_resource type="GDScript" id=1]
script/source = "tool
extends Control


const DELAY = 2.0

export(String) var label_format = \"{val}\"

export(Color) var color_bar = Color(1.0, 1.0, 1.0)
export(Color) var color_delay = Color(0.8, 0.8, 0.8)

export(int) var min_value = 0
export(int) var max_value = 100
export(int) var value = 100 setget set_value

var curr_value = 100.0
var target_value = 100.0

var highlight_visibility = 0.0

func set_value(val):
	value = val
	
	target_value = val
	if has_node(\"Tween\"):
		$Tween.interpolate_property(self, \"highlight_visibility\", 0.0, 1.0, 0.1, Tween.TRANS_LINEAR, Tween.EASE_IN)
		$Tween.connect(\"tween_all_completed\", self, \"start_delayed_update\", [], CONNECT_ONESHOT)
		$Tween.start()
	else:
		curr_value = val
	
	if has_node(\"Label\"):
		$Label.text = label_format.format({\"val\": val})
	
	update()


func start_delayed_update():
	$Tween.interpolate_property(self, \"highlight_visibility\", 1.0, 0.0, 0.3, Tween.TRANS_LINEAR, Tween.EASE_OUT)
	$Tween.interpolate_property(self, \"curr_value\", curr_value, target_value, DELAY, Tween.TRANS_LINEAR, Tween.EASE_IN_OUT)
	$Tween.start()


func _ready():
	update()

func _process(delta):
	if has_node(\"Tween\") and $Tween.is_active():
		update()

func _draw():
	# Main Bar
	draw_rect(Rect2(Vector2.ZERO, Vector2(value_to_x(target_value), rect_size.y)), color_bar)
	
	# Delay Bar
	draw_rect(
		Rect2(
			Vector2(value_to_x(target_value), 0),
			Vector2(value_to_x(curr_value - target_value), rect_size.y)
		), color_delay
	)
	
	# Highlight
	draw_rect(Rect2(Vector2.ZERO, rect_size), Color(1.0, 1.0, 1.0, highlight_visibility))

func value_to_x(val: float):
	return ((val - float(min_value)) / float(max_value - min_value)) * float(rect_size.x)
"

[node name="DelayedProgressBar" type="Control"]
anchor_right = 1.0
anchor_bottom = 1.0
script = SubResource( 1 )
__meta__ = {
"_edit_use_anchors_": false
}
color_bar = Color( 0.505882, 0, 0, 1 )
color_delay = Color( 0.352941, 0, 0, 1 )
value = 50

[node name="Label" type="Label" parent="."]
anchor_right = 1.0
anchor_bottom = 1.0
size_flags_horizontal = 3
size_flags_vertical = 3
custom_fonts/font = ExtResource( 1 )
custom_colors/font_color = Color( 1, 1, 1, 1 )
text = "50"
align = 1
valign = 1
__meta__ = {
"_edit_use_anchors_": false
}

[node name="Tween" type="Tween" parent="."]
