[gd_scene load_steps=6 format=2]

[ext_resource path="res://textures/ui/room-button-inactive-door.png" type="Texture" id=1]
[ext_resource path="res://textures/ui/room-button-hover-door.png" type="Texture" id=2]
[ext_resource path="res://textures/ui/room-button-active-door.png" type="Texture" id=3]
[ext_resource path="res://textures/ui/room-button-door.png" type="Texture" id=4]
[ext_resource path="res://src/menus/RoomButton.gd" type="Script" id=7]

[node name="RoomButton" type="Control"]
script = ExtResource( 7 )
__meta__ = {
"_edit_group_": true,
"_edit_use_anchors_": false
}

[node name="ButtonNormal" type="TextureButton" parent="."]
anchor_left = 0.5
anchor_top = 0.5
anchor_right = 0.5
anchor_bottom = 0.5
margin_left = -40.0
margin_top = -40.0
margin_right = 40.0
margin_bottom = 40.0
texture_normal = ExtResource( 4 )
texture_hover = ExtResource( 2 )
texture_disabled = ExtResource( 1 )
__meta__ = {
"_edit_use_anchors_": false
}

[node name="ButtonActive" type="TextureButton" parent="."]
visible = false
anchor_left = 0.5
anchor_top = 0.5
anchor_right = 0.5
anchor_bottom = 0.5
margin_left = -40.0
margin_top = -40.0
margin_right = 40.0
margin_bottom = 40.0
texture_normal = ExtResource( 3 )
__meta__ = {
"_edit_use_anchors_": false
}
[connection signal="mouse_entered" from="ButtonNormal" to="." method="_on_mouse_entered"]
[connection signal="mouse_exited" from="ButtonNormal" to="." method="_on_mouse_exited"]
[connection signal="pressed" from="ButtonNormal" to="." method="_on_ButtonNormal_pressed"]
[connection signal="mouse_entered" from="ButtonActive" to="." method="_on_mouse_entered"]
[connection signal="mouse_exited" from="ButtonActive" to="." method="_on_mouse_exited"]
[connection signal="pressed" from="ButtonActive" to="." method="_on_ButtonActive_pressed"]
