[gd_scene load_steps=6 format=2]

[ext_resource path="res://fonts/booter.zero-zero.ttf" type="DynamicFontData" id=1]
[ext_resource path="res://textures/ui/end_screen_bg.png" type="Texture" id=2]

[sub_resource type="GDScript" id=1]
script/source = "extends CenterContainer

export(String) var main_text = \"Out of Control\" setget set_main_text

func set_main_text(value):
	main_text = value
	if has_node(\"VBox/LabelMain\"):
		$VBox/LabelMain.text = value

func _ready():
	wait_time()

func wait_time():
	yield(get_tree().create_timer(3), \"timeout\")
	get_tree().change_scene(\"res://src/menus/MainMenu.tscn\")
"

[sub_resource type="DynamicFont" id=2]
size = 112
font_data = ExtResource( 1 )

[sub_resource type="DynamicFont" id=3]
size = 72
font_data = ExtResource( 1 )

[node name="EndScreen" type="CenterContainer"]
anchor_right = 1.0
anchor_bottom = 1.0
script = SubResource( 1 )
__meta__ = {
"_edit_use_anchors_": false
}

[node name="VBox" type="VBoxContainer" parent="."]
margin_left = 310.0
margin_top = 204.0
margin_right = 713.0
margin_bottom = 395.0

[node name="LabelMain" type="Label" parent="VBox"]
margin_right = 403.0
margin_bottom = 113.0
size_flags_horizontal = 3
custom_fonts/font = SubResource( 2 )
custom_colors/font_color = Color( 0.231373, 0.564706, 0.862745, 1 )
text = "Out of Control!"
align = 1

[node name="Label" type="Label" parent="VBox"]
margin_top = 117.0
margin_right = 403.0
margin_bottom = 191.0
size_flags_horizontal = 3
custom_fonts/font = SubResource( 3 )
custom_colors/font_color = Color( 0.231373, 0.564706, 0.862745, 1 )
text = "You won!"
align = 1

[node name="TextureRect" type="TextureRect" parent="."]
margin_left = 162.0
margin_top = 100.0
margin_right = 862.0
margin_bottom = 500.0
texture = ExtResource( 2 )
