[gd_scene load_steps=5 format=2]

[ext_resource path="res://src/dungeon/DungeonPlan.gd" type="Script" id=1]
[ext_resource path="res://src/dungeon/DungeonGenerator.tscn" type="PackedScene" id=2]
[ext_resource path="res://src/PlayerCamera.tscn" type="PackedScene" id=3]
[ext_resource path="res://textures/ui/party-marker.png" type="Texture" id=4]

[node name="DungeonPlan" type="Node2D"]
script = ExtResource( 1 )

[node name="DungeonGenerator" parent="." instance=ExtResource( 2 )]
tileSize = 16
numRooms = 200
roomSpreading = 1.4

[node name="Paths" type="Node2D" parent="."]

[node name="Rooms" type="Node2D" parent="."]

[node name="PlayerCamera" parent="." instance=ExtResource( 3 )]
current = true
pan_speed = Vector2( 500, 500 )

[node name="PlayerMarker" type="Node2D" parent="."]

[node name="Sprite" type="Sprite" parent="PlayerMarker"]
position = Vector2( 0, -32 )
texture = ExtResource( 4 )
